<?xml version="1.0" encoding="UTF-8" standalone="no"?>
<!-- Created with Inkscape (http://www.inkscape.org/) -->

<svg
   xmlns:osb="http://www.openswatchbook.org/uri/2009/osb"
   xmlns:dc="http://purl.org/dc/elements/1.1/"
   xmlns:cc="http://creativecommons.org/ns#"
   xmlns:rdf="http://www.w3.org/1999/02/22-rdf-syntax-ns#"
   xmlns:svg="http://www.w3.org/2000/svg"
   xmlns="http://www.w3.org/2000/svg"
   xmlns:sodipodi="http://sodipodi.sourceforge.net/DTD/sodipodi-0.dtd"
   xmlns:inkscape="http://www.inkscape.org/namespaces/inkscape"
   width="200"
   height="200"
   viewBox="0 0 52.916665 52.916668"
   version="1.1"
   id="svg8"
   inkscape:version="0.92.3 (2405546, 2018-03-11)"
   sodipodi:docname="align_center_selected.svg">
  <defs
     id="defs2">
    <linearGradient
       id="linearGradient2497"
       osb:paint="solid">
      <stop
         style="stop-color:#000000;stop-opacity:1;"
         offset="0"
         id="stop2495" />
    </linearGradient>
  </defs>
  <sodipodi:namedview
     id="base"
     pagecolor="#ffffff"
     bordercolor="#666666"
     borderopacity="1.0"
     inkscape:pageopacity="0.0"
     inkscape:pageshadow="2"
     inkscape:zoom="2.0636928"
     inkscape:cx="-84.529489"
     inkscape:cy="96.626989"
     inkscape:document-units="mm"
     inkscape:current-layer="layer1"
     showgrid="false"
     units="px"
     inkscape:window-width="1872"
     inkscape:window-height="1017"
     inkscape:window-x="48"
     inkscape:window-y="34"
     inkscape:window-maximized="1" />
  <metadata
     id="metadata5">
    <rdf:RDF>
      <cc:Work
         rdf:about="">
        <dc:format>image/svg+xml</dc:format>
        <dc:type
           rdf:resource="http://purl.org/dc/dcmitype/StillImage" />
        <dc:title></dc:title>
      </cc:Work>
    </rdf:RDF>
  </metadata>
  <g
     inkscape:label="Calque 1"
     inkscape:groupmode="layer"
     id="layer1"
     transform="translate(0,-244.08332)"
     style="display:inline">
    <path
       id="path50"
       style="fill:#0080c0;fill-opacity:1;stroke:#000000;stroke-width:2.35299993;stroke-miterlimit:4;stroke-dasharray:none;stroke-opacity:1"
       d="M 26.290595,246.31671 A 24.483326,24.483329 0 0 0 1.8072867,270.7998 24.483326,24.483329 0 0 0 26.290595,295.28341 24.483326,24.483329 0 0 0 50.773901,270.7998 24.483326,24.483329 0 0 0 26.290595,246.31671 Z"
       inkscape:connector-curvature="0" />
    <g
       transform="matrix(0.05215258,0,0,0.05215258,12.68613,257.26874)"
       id="g12804">
      <path
         inkscape:connector-curvature="0"
         d="m 511.63,401.994 v 36.546 c 0,4.948 -1.811,9.232 -5.425,12.854 -3.617,3.61 -7.905,5.421 -12.85,5.421 H 18.274 c -4.947,0 -9.23,-1.811 -12.851,-5.421 C 1.809,447.772 0,443.488 0,438.54 v -36.546 c 0,-4.948 1.809,-9.232 5.424,-12.847 3.618,-3.617 7.898,-5.427 12.851,-5.427 h 475.082 c 4.944,0 9.232,1.81 12.85,5.427 3.613,3.615 5.423,7.899 5.423,12.847 z M 127.91,274.088 c -4.952,0 -9.233,1.811 -12.85,5.428 -3.618,3.613 -5.424,7.901 -5.424,12.847 v 36.545 c 0,4.948 1.807,9.236 5.424,12.847 3.62,3.617 7.901,5.432 12.85,5.432 h 255.813 c 4.948,0 9.233,-1.814 12.847,-5.432 3.617,-3.61 5.428,-7.898 5.428,-12.847 v -36.545 c 0,-4.945 -1.811,-9.233 -5.428,-12.847 -3.613,-3.617 -7.898,-5.428 -12.847,-5.428 z M 54.821,237.548 H 456.81 c 4.949,0 9.233,-1.812 12.848,-5.429 3.613,-3.612 5.42,-7.898 5.42,-12.845 v -36.547 c 0,-4.952 -1.807,-9.231 -5.42,-12.847 -3.614,-3.617 -7.898,-5.424 -12.848,-5.424 H 54.821 c -4.952,0 -9.235,1.807 -12.85,5.424 -3.617,3.615 -5.424,7.898 -5.424,12.847 v 36.547 c 0,4.947 1.807,9.233 5.424,12.845 3.619,3.617 7.898,5.429 12.85,5.429 z M 164.457,127.909 h 182.714 c 4.948,0 9.236,-1.809 12.854,-5.424 3.613,-3.617 5.424,-7.898 5.424,-12.847 V 73.091 c 0,-4.948 -1.811,-9.229 -5.417,-12.85 -3.62,-3.612 -7.905,-5.424 -12.854,-5.424 H 164.457 c -4.952,0 -9.235,1.812 -12.85,5.424 -3.617,3.617 -5.426,7.902 -5.426,12.85 v 36.547 c 0,4.948 1.809,9.229 5.426,12.847 3.619,3.615 7.901,5.424 12.85,5.424 z"
         id="path12802" />
    </g>
  </g>
  <g
     inkscape:groupmode="layer"
     id="layer2"
     inkscape:label="Calque 2"
     style="display:inline" />
</svg>
