<?xml version="1.0" encoding="UTF-8" standalone="no"?>
<!-- Created with Inkscape (http://www.inkscape.org/) -->

<svg
   xmlns:osb="http://www.openswatchbook.org/uri/2009/osb"
   xmlns:dc="http://purl.org/dc/elements/1.1/"
   xmlns:cc="http://creativecommons.org/ns#"
   xmlns:rdf="http://www.w3.org/1999/02/22-rdf-syntax-ns#"
   xmlns:svg="http://www.w3.org/2000/svg"
   xmlns="http://www.w3.org/2000/svg"
   xmlns:sodipodi="http://sodipodi.sourceforge.net/DTD/sodipodi-0.dtd"
   xmlns:inkscape="http://www.inkscape.org/namespaces/inkscape"
   width="200"
   height="200"
   viewBox="0 0 52.916665 52.916668"
   version="1.1"
   id="svg8"
   inkscape:version="0.92.3 (2405546, 2018-03-11)"
   sodipodi:docname="bold_selected.svg">
  <defs
     id="defs2">
    <linearGradient
       id="linearGradient2497"
       osb:paint="solid">
      <stop
         style="stop-color:#000000;stop-opacity:1;"
         offset="0"
         id="stop2495" />
    </linearGradient>
  </defs>
  <sodipodi:namedview
     id="base"
     pagecolor="#ffffff"
     bordercolor="#666666"
     borderopacity="1.0"
     inkscape:pageopacity="0.0"
     inkscape:pageshadow="2"
     inkscape:zoom="2.9185023"
     inkscape:cx="0.32826705"
     inkscape:cy="106.987"
     inkscape:document-units="mm"
     inkscape:current-layer="layer1"
     showgrid="false"
     units="px"
     inkscape:window-width="1872"
     inkscape:window-height="1017"
     inkscape:window-x="48"
     inkscape:window-y="34"
     inkscape:window-maximized="1" />
  <metadata
     id="metadata5">
    <rdf:RDF>
      <cc:Work
         rdf:about="">
        <dc:format>image/svg+xml</dc:format>
        <dc:type
           rdf:resource="http://purl.org/dc/dcmitype/StillImage" />
        <dc:title></dc:title>
      </cc:Work>
    </rdf:RDF>
  </metadata>
  <g
     inkscape:label="Calque 1"
     inkscape:groupmode="layer"
     id="layer1"
     transform="translate(0,-244.08332)"
     style="display:inline">
    <path
       id="path50"
       style="fill:#0080c0;fill-opacity:1;stroke:#000000;stroke-width:2.35299993;stroke-miterlimit:4;stroke-dasharray:none;stroke-opacity:1"
       d="M 26.290595,246.31671 A 24.483326,24.483329 0 0 0 1.8072867,270.7998 24.483326,24.483329 0 0 0 26.290595,295.28341 24.483326,24.483329 0 0 0 50.773901,270.7998 24.483326,24.483329 0 0 0 26.290595,246.31671 Z"
       inkscape:connector-curvature="0" />
    <g
       transform="matrix(0.14937849,0,0,0.14663572,13.190755,257.59122)"
       id="g11160">
      <path
         inkscape:connector-curvature="0"
         d="M 20.618,181.395 V 0 h 62.293 c 22.506,0 40.074,4.174 52.699,12.521 12.623,8.346 18.936,20.785 18.936,37.313 0,8.639 -2.033,16.318 -6.104,23.049 -4.07,6.729 -10.34,11.795 -18.813,15.199 10.631,2.408 18.479,7.246 23.547,14.514 5.064,7.268 7.6,15.637 7.6,25.104 0,17.691 -5.939,31.064 -17.814,40.115 -11.879,9.055 -28.904,13.58 -51.082,13.58 z M 62.853,75.623 h 20.93 c 9.551,-0.166 16.695,-2.014 21.43,-5.545 4.734,-3.529 7.102,-8.699 7.102,-15.51 0,-7.725 -2.41,-13.35 -7.225,-16.881 -4.82,-3.529 -12.211,-5.295 -22.178,-5.295 H 62.853 Z m 0,27.908 v 45.473 H 91.88 c 8.971,0 15.699,-1.766 20.184,-5.297 4.484,-3.529 6.729,-8.947 6.729,-16.256 0,-7.891 -1.932,-13.85 -5.795,-17.879 -3.861,-4.027 -10.111,-6.041 -18.748,-6.041 z"
         id="path11158" />
    </g>
  </g>
  <g
     inkscape:groupmode="layer"
     id="layer2"
     inkscape:label="Calque 2"
     style="display:inline" />
</svg>
