<?xml version="1.0" encoding="UTF-8" standalone="no"?>
<!-- Created with Inkscape (http://www.inkscape.org/) -->

<svg
   xmlns:osb="http://www.openswatchbook.org/uri/2009/osb"
   xmlns:dc="http://purl.org/dc/elements/1.1/"
   xmlns:cc="http://creativecommons.org/ns#"
   xmlns:rdf="http://www.w3.org/1999/02/22-rdf-syntax-ns#"
   xmlns:svg="http://www.w3.org/2000/svg"
   xmlns="http://www.w3.org/2000/svg"
   xmlns:sodipodi="http://sodipodi.sourceforge.net/DTD/sodipodi-0.dtd"
   xmlns:inkscape="http://www.inkscape.org/namespaces/inkscape"
   width="200"
   height="200"
   viewBox="0 0 52.916665 52.916668"
   version="1.1"
   id="svg8"
   inkscape:version="0.92.3 (2405546, 2018-03-11)"
   sodipodi:docname="library.svg">
  <defs
     id="defs2">
    <linearGradient
       id="linearGradient2497"
       osb:paint="solid">
      <stop
         style="stop-color:#000000;stop-opacity:1;"
         offset="0"
         id="stop2495" />
    </linearGradient>
  </defs>
  <sodipodi:namedview
     id="base"
     pagecolor="#ffffff"
     bordercolor="#666666"
     borderopacity="1.0"
     inkscape:pageopacity="0.0"
     inkscape:pageshadow="2"
     inkscape:zoom="2.9185023"
     inkscape:cx="11.949682"
     inkscape:cy="94.050898"
     inkscape:document-units="mm"
     inkscape:current-layer="layer1"
     showgrid="false"
     units="px"
     inkscape:window-width="1872"
     inkscape:window-height="1017"
     inkscape:window-x="48"
     inkscape:window-y="34"
     inkscape:window-maximized="1" />
  <metadata
     id="metadata5">
    <rdf:RDF>
      <cc:Work
         rdf:about="">
        <dc:format>image/svg+xml</dc:format>
        <dc:type
           rdf:resource="http://purl.org/dc/dcmitype/StillImage" />
        <dc:title />
      </cc:Work>
    </rdf:RDF>
  </metadata>
  <g
     inkscape:label="Calque 1"
     inkscape:groupmode="layer"
     id="layer1"
     transform="translate(0,-244.08332)"
     style="display:inline">
    <path
       id="path50"
       style="fill:#c4d7ed;fill-opacity:1;stroke:#000000;stroke-width:2.35299993;stroke-miterlimit:4;stroke-dasharray:none;stroke-opacity:1"
       d="M 26.290595,246.31671 A 24.483326,24.483329 0 0 0 1.8072867,270.7998 24.483326,24.483329 0 0 0 26.290595,295.28341 24.483326,24.483329 0 0 0 50.773901,270.7998 24.483326,24.483329 0 0 0 26.290595,246.31671 Z"
       inkscape:connector-curvature="0" />
    <g
       transform="matrix(0.06603312,0,0,0.05032358,8.2328471,258.6429)"
       id="g5133">
      <g
         id="g5131">
        <g
           id="g5129">
          <path
             inkscape:connector-curvature="0"
             d="m 379.879,131.063 c -28.418,0 -51.537,23.12 -51.537,51.537 0,28.417 23.119,51.537 51.537,51.537 28.417,0 51.537,-23.119 51.537,-51.537 0,-28.419 -23.119,-51.537 -51.537,-51.537 z m 0,83.074 c -17.39,0 -31.537,-14.147 -31.537,-31.537 0,-17.39 14.147,-31.537 31.537,-31.537 17.389,0 31.537,14.147 31.537,31.537 0,17.388 -14.147,31.537 -31.537,31.537 z"
             id="path5121" />
          <path
             inkscape:connector-curvature="0"
             d="m 380.23,451.181 c -0.25,-0.61 -0.56,-1.19 -0.92,-1.73 -0.36,-0.55 -0.78,-1.06 -1.24,-1.52 -0.46,-0.46 -0.97,-0.88 -1.52,-1.24 -0.54,-0.36 -1.12,-0.67 -1.73,-0.92 -0.6,-0.25 -1.23,-0.45 -1.87,-0.57 -1.29,-0.26 -2.61,-0.26 -3.9,0 -0.64,0.12 -1.27,0.32 -1.87,0.57 -0.61,0.25 -1.19,0.56 -1.73,0.92 -0.55,0.36 -1.06,0.78 -1.52,1.24 -0.46,0.46 -0.88,0.97 -1.24,1.52 -0.36,0.54 -0.67,1.12 -0.92,1.73 -0.25,0.6 -0.45,1.23 -0.57,1.87 -0.13,0.64 -0.2,1.3 -0.2,1.95 0,0.65 0.07,1.31 0.2,1.95 0.12,0.64 0.32,1.27 0.57,1.87 0.25,0.61 0.56,1.19 0.92,1.73 0.36,0.55 0.78,1.06 1.24,1.52 0.229,0.229 0.471,0.448 0.723,0.655 0.255,0.208 0.521,0.405 0.797,0.585 0.54,0.36 1.12,0.67 1.73,0.92 0.6,0.25 1.23,0.45 1.87,0.57 0.64,0.13 1.3,0.2 1.95,0.2 0.65,0 1.31,-0.07 1.95,-0.2 0.64,-0.12 1.27,-0.32 1.87,-0.57 0.61,-0.25 1.19,-0.56 1.73,-0.92 0.276,-0.181 0.542,-0.377 0.797,-0.585 0.253,-0.207 0.494,-0.426 0.723,-0.655 0.46,-0.46 0.88,-0.97 1.24,-1.52 0.36,-0.54 0.67,-1.12 0.92,-1.73 0.25,-0.6 0.45,-1.23 0.58,-1.87 0.13,-0.64 0.19,-1.3 0.19,-1.95 0,-0.65 -0.06,-1.31 -0.19,-1.95 -0.13,-0.641 -0.33,-1.271 -0.58,-1.87 z"
             id="path5123" />
          <path
             inkscape:connector-curvature="0"
             d="m 222.85,55.451 c -0.25,-0.6 -0.56,-1.18 -0.92,-1.73 -0.36,-0.54 -0.78,-1.06 -1.24,-1.52 -0.46,-0.46 -0.97,-0.88 -1.52,-1.24 -0.54,-0.36 -1.12,-0.67 -1.73,-0.92 -0.6,-0.25 -1.23,-0.44 -1.87,-0.57 -1.29,-0.26 -2.61,-0.26 -3.9,0 -0.64,0.13 -1.27,0.32 -1.88,0.57 -0.6,0.25 -1.18,0.56 -1.72,0.92 -0.55,0.36 -1.06,0.78 -1.52,1.24 -0.46,0.46 -0.88,0.98 -1.25,1.52 -0.36,0.55 -0.66,1.13 -0.91,1.73 -0.25,0.6 -0.45,1.23 -0.57,1.87 -0.13,0.65 -0.2,1.3 -0.2,1.96 0,0.65 0.07,1.3 0.2,1.95 0.12,0.64 0.32,1.27 0.57,1.87 0.25,0.6 0.55,1.18 0.91,1.73 0.37,0.54 0.79,1.06 1.25,1.52 0.46,0.46 0.97,0.88 1.52,1.24 0.54,0.36 1.12,0.67 1.72,0.92 0.61,0.25 1.24,0.44 1.88,0.57 0.64,0.13 1.3,0.2 1.95,0.2 0.65,0 1.31,-0.07 1.95,-0.2 0.64,-0.13 1.27,-0.32 1.87,-0.57 0.61,-0.25 1.19,-0.56 1.73,-0.92 0.55,-0.36 1.06,-0.78 1.52,-1.24 0.46,-0.46 0.88,-0.98 1.24,-1.52 0.36,-0.55 0.67,-1.13 0.92,-1.73 0.25,-0.6 0.45,-1.23 0.57,-1.87 0.13,-0.65 0.2,-1.3 0.2,-1.95 0,-0.66 -0.07,-1.31 -0.2,-1.96 -0.12,-0.64 -0.32,-1.27 -0.57,-1.87 z"
             id="path5125" />
          <path
             inkscape:connector-curvature="0"
             d="M 456.128,49.318 C 450.132,23.969 427.328,5.044 400.172,5.044 H 86.417 C 38.767,5.043 0,43.81 0,91.46 v 313.755 c 0,31.161 24.917,56.595 55.872,57.468 5.996,25.349 28.8,44.274 55.956,44.274 H 454.49 c 31.711,0 57.51,-25.799 57.51,-57.51 V 373.989 106.785 C 512,75.625 487.083,50.191 456.128,49.318 Z M 492,449.449 c 0,20.683 -16.827,37.51 -37.51,37.51 H 111.828 c -16.01,0 -29.702,-10.085 -35.075,-24.233 -1.569,-4.13 -2.435,-8.603 -2.435,-13.277 v -6.723 -46.329 L 189.043,201.873 c 3.493,-5.922 9.722,-9.38 16.556,-9.27 6.875,0.118 12.942,3.792 16.23,9.831 l 49.396,90.702 71.801,131.843 c 1.814,3.332 5.247,5.219 8.791,5.219 1.616,0 3.255,-0.393 4.774,-1.22 4.85,-2.642 6.641,-8.715 4,-13.565 l -23.3,-42.785 c 10.23,0.472 20.292,-2.841 28.305,-9.488 l 44.971,-37.306 c 7.212,-5.983 17.861,-5.72 24.769,0.613 l 2.348,2.152 20,18.333 34.316,31.457 z m 0,-98.192 -34.317,-31.458 -20,-15.229 c -13.031,-5.45 -28.525,-3.554 -39.886,5.87 l -44.971,37.306 c -4.946,4.104 -11.404,5.762 -17.716,4.549 -6.312,-1.212 -11.695,-5.146 -14.769,-10.79 l -31.552,-57.936 -17.618,-32.351 v -10e-4 l -31.777,-58.35 c -6.778,-12.445 -19.284,-20.02 -33.453,-20.262 -14.165,-0.222 -26.926,6.901 -34.125,19.107 L 74.317,357.027 V 106.785 c 0,-20.683 16.827,-37.51 37.51,-37.51 h 61.792 c 5.523,0 10,-4.477 10,-10 0,-5.523 -4.477,-10 -10,-10 h -61.792 c -31.711,0 -57.51,25.799 -57.51,57.51 v 286.882 48.912 C 35.124,440.952 20,424.822 20,405.215 V 91.46 C 20,54.837 49.795,25.043 86.417,25.043 h 313.755 c 16.01,0 29.702,10.085 35.075,24.233 H 253.619 c -5.523,0 -10,4.477 -10,10 0,5.523 4.477,10 10,10 h 184.063 l 20,0.146 C 476.876,71.048 492,87.178 492,106.785 Z"
             id="path5127" />
        </g>
      </g>
    </g>
  </g>
  <g
     inkscape:groupmode="layer"
     id="layer2"
     inkscape:label="Calque 2"
     style="display:inline" />
</svg>
